NTOLab12
…
NTOLab12

Ethan, Anderson, David, Ryan, Arie

4/12/2019

Overall Questions/Conclusion

Question(Two-Sample Permutation test): From 1957-2007, how does the mean difference of GDP change over time between the United States and China, India, Japan, South Korea, and Indonesia? This question is important and interesting because over time it will show if the GDP per capita of the asain countries catch up to the GDP per capita of the United States, as well as how GDP was impacted by events in history.

Question(Correlation Permutation test): Is there a correlation bewteen GDP per capita and life expectancy? This question is important because it will give us a better understanding of which countries struggle to get better access to health care, education etc. This question is also interesting because it can help policy makers decide what action to take to advance the country the represent.

Two-Sample Permuatation test

## # A tibble: 1,000 x 1
##      value
##      <dbl>
##  1  7.88  
##  2  0.92  
##  3 -6.36  
##  4  0.960 
##  5  2.32  
##  6 -9.72  
##  7  0.720 
##  8 -2.36  
##  9 -0.0800
## 10 -0.92  
## #  with 990 more rows
…
Correlation Permutation Test

## # A tibble: 100 x 1
##       value
##       <dbl>
##  1  0.188  
##  2  0.321  
##  3  0.455  
##  4  0.188  
##  5  0.382  
##  6  0.188  
##  7 -0.200  
##  8 -0.115  
##  9 -0.00606
## 10  0.200  
## #  with 90 more rows
…
Explanation: This graph relates to our second question Is there a correlation bewteen GDP per capita and life expectancy? From this graph we found that there was a correlation of .6 between GDP per capita and life expectancy. Therfore, we can say that there is a strong positive correlation. This makes sense because richer countries have better access to health care.

## # A tibble: 1,000 x 1
##        value
##        <dbl>
##  1 -0.0109  
##  2 -0.0359  
##  3 -0.0225  
##  4  0.0272  
##  5 -0.0240  
##  6  0.0185  
##  7  0.0309  
##  8  0.000182
##  9 -0.0597  
## 10 -0.0493  
## #  with 990 more rows
…
## # A tibble: 1,000 x 1
##       value
##       <dbl>
##  1 -0.00397
##  2 -0.0651 
##  3 -0.0887 
##  4 -0.0201 
##  5 -0.0819 
##  6 -0.0534 
##  7 -0.0650 
##  8 -0.0200 
##  9 -0.0495 
## 10  0.0723 
## #  with 990 more rows
…
## # A tibble: 1,000 x 1
##     value
##     <dbl>
##  1 -1183.
##  2 -1653.
##  3 -4829.
##  4   969.
##  5 -1976.
##  6  3969.
##  7 -5718.
##  8 -4907.
##  9 -1876.
## 10  8390.
## #  with 990 more rows
…
